…
``` r
# Lengthening Data --------------------------------------------------------

# Data in column names

billboard |> 
  pivot_longer(
    cols = starts_with("wk"), 
    names_to = "week", 
    values_to = "rank"
  )
```

```         
## # A tibble: 24,092 × 5
##    artist track                   date.entered week   rank
##    <chr>  <chr>                   <date>       <chr> <dbl>
##  1 2 Pac  Baby Don't Cry (Keep... 2000-02-26   wk1      87
##  2 2 Pac  Baby Don't Cry (Keep... 2000-02-26   wk2      82
##  3 2 Pac  Baby Don't Cry (Keep... 2000-02-26   wk3      72
##  4 2 Pac  Baby Don't Cry (Keep... 2000-02-26   wk4      77
##  5 2 Pac  Baby Don't Cry (Keep... 2000-02-26   wk5      87
##  6 2 Pac  Baby Don't Cry (Keep... 2000-02-26   wk6      94
##  7 2 Pac  Baby Don't Cry (Keep... 2000-02-26   wk7      99
##  8 2 Pac  Baby Don't Cry (Keep... 2000-02-26   wk8      NA
##  9 2 Pac  Baby Don't Cry (Keep... 2000-02-26   wk9      NA
## 10 2 Pac  Baby Don't Cry (Keep... 2000-02-26   wk10     NA
## # ℹ 24,082 more rows
```

``` r
billboard |> 
  pivot_longer(
    cols = !c(artist, track, date.entered), 
    names_to = "week", 
    values_to = "rank"
  )
```

```         
## # A tibble: 24,092 × 5
##    artist track                   date.entered week   rank
##    <chr>  <chr>                   <date>       <chr> <dbl>
##  1 2 Pac  Baby Don't Cry (Keep... 2000-02-26   wk1      87
##  2 2 Pac  Baby Don't Cry (Keep... 2000-02-26   wk2      82
##  3 2 Pac  Baby Don't Cry (Keep... 2000-02-26   wk3      72
##  4 2 Pac  Baby Don't Cry (Keep... 2000-02-26   wk4      77
##  5 2 Pac  Baby Don't Cry (Keep... 2000-02-26   wk5      87
##  6 2 Pac  Baby Don't Cry (Keep... 2000-02-26   wk6      94
##  7 2 Pac  Baby Don't Cry (Keep... 2000-02-26   wk7      99
##  8 2 Pac  Baby Don't Cry (Keep... 2000-02-26   wk8      NA
##  9 2 Pac  Baby Don't Cry (Keep... 2000-02-26   wk9      NA
## 10 2 Pac  Baby Don't Cry (Keep... 2000-02-26   wk10     NA
## # ℹ 24,082 more rows
```

``` r
# Drop na

billboard |> 
  pivot_longer(
    cols = starts_with("wk"), 
    names_to = "week", 
    values_to = "rank", 
    values_drop_na = TRUE
  )
```

```         
## # A tibble: 5,307 × 5
##    artist  track                   date.entered week   rank
##    <chr>   <chr>                   <date>       <chr> <dbl>
##  1 2 Pac   Baby Don't Cry (Keep... 2000-02-26   wk1      87
##  2 2 Pac   Baby Don't Cry (Keep... 2000-02-26   wk2      82
##  3 2 Pac   Baby Don't Cry (Keep... 2000-02-26   wk3      72
##  4 2 Pac   Baby Don't Cry (Keep... 2000-02-26   wk4      77
##  5 2 Pac   Baby Don't Cry (Keep... 2000-02-26   wk5      87
##  6 2 Pac   Baby Don't Cry (Keep... 2000-02-26   wk6      94
##  7 2 Pac   Baby Don't Cry (Keep... 2000-02-26   wk7      99
##  8 2Ge+her The Hardest Part Of ... 2000-09-02   wk1      91
##  9 2Ge+her The Hardest Part Of ... 2000-09-02   wk2      87
## 10 2Ge+her The Hardest Part Of ... 2000-09-02   wk3      92
## # ℹ 5,297 more rows
```
``` r
# Parsing number from mixed string
billboard_longer <- billboard |> 
  pivot_longer(
    cols = starts_with("wk"),
    names_to = "week",
    values_to = "rank",
    values_drop_na = TRUE
  ) |> 
  mutate(week = parse_number(week))
billboard_longer
```

```         
## # A tibble: 5,307 × 5
##    artist  track                   date.entered  week  rank
##    <chr>   <chr>                   <date>       <dbl> <dbl>
##  1 2 Pac   Baby Don't Cry (Keep... 2000-02-26       1    87
##  2 2 Pac   Baby Don't Cry (Keep... 2000-02-26       2    82
##  3 2 Pac   Baby Don't Cry (Keep... 2000-02-26       3    72
##  4 2 Pac   Baby Don't Cry (Keep... 2000-02-26       4    77
##  5 2 Pac   Baby Don't Cry (Keep... 2000-02-26       5    87
##  6 2 Pac   Baby Don't Cry (Keep... 2000-02-26       6    94
##  7 2 Pac   Baby Don't Cry (Keep... 2000-02-26       7    99
##  8 2Ge+her The Hardest Part Of ... 2000-09-02       1    91
##  9 2Ge+her The Hardest Part Of ... 2000-09-02       2    87
## 10 2Ge+her The Hardest Part Of ... 2000-09-02       3    92
## # ℹ 5,297 more rows
```
…
``` r
who2 |> pivot_longer(
  cols = !(country:year),
  names_to = c("diagonsis", "gender", "age"),
  names_sep = "_",
  values_to = "count",
  values_drop_na = TRUE
)
```

```         
## # A tibble: 76,046 × 6
##    country      year diagonsis gender age   count
##    <chr>       <dbl> <chr>     <chr>  <chr> <dbl>
##  1 Afghanistan  1997 sp        m      014       0
##  2 Afghanistan  1997 sp        m      1524     10
##  3 Afghanistan  1997 sp        m      2534      6
##  4 Afghanistan  1997 sp        m      3544      3
##  5 Afghanistan  1997 sp        m      4554      5
##  6 Afghanistan  1997 sp        m      5564      2
##  7 Afghanistan  1997 sp        m      65        0
##  8 Afghanistan  1997 sp        f      014       5
##  9 Afghanistan  1997 sp        f      1524     38
## 10 Afghanistan  1997 sp        f      2534     36
## # ℹ 76,036 more rows
```
…
``` r
cms_patient_experience |> 
  pivot_wider(
    names_from = measure_cd,
    values_from = prf_rate
  )
```

```         
## # A tibble: 500 × 9
##    org_pac_id org_nm    measure_title CAHPS_GRP_1 CAHPS_GRP_2 CAHPS_GRP_3 CAHPS_GRP_5
##    <chr>      <chr>     <chr>               <dbl>       <dbl>       <dbl>       <dbl>
##  1 0446157747 USC CARE… CAHPS for MI…          63          NA          NA          NA
##  2 0446157747 USC CARE… CAHPS for MI…          NA          87          NA          NA
##  3 0446157747 USC CARE… CAHPS for MI…          NA          NA          86          NA
##  4 0446157747 USC CARE… CAHPS for MI…          NA          NA          NA          57
##  5 0446157747 USC CARE… CAHPS for MI…          NA          NA          NA          NA
##  6 0446157747 USC CARE… CAHPS for MI…          NA          NA          NA          NA
##  7 0446162697 ASSOCIAT… CAHPS for MI…          59          NA          NA          NA
##  8 0446162697 ASSOCIAT… CAHPS for MI…          NA          85          NA          NA
##  9 0446162697 ASSOCIAT… CAHPS for MI…          NA          NA          83          NA
## 10 0446162697 ASSOCIAT… CAHPS for MI…          NA          NA          NA          63
## # ℹ 490 more rows
## # ℹ 2 more variables: CAHPS_GRP_8 <dbl>, CAHPS_GRP_12 <dbl>
```

``` r
cms_patient_experience |> 
  pivot_wider(
    id_cols = starts_with("org"),
    names_from = measure_cd,
    values_from = prf_rate
  )
```

```         
## # A tibble: 95 × 8
##    org_pac_id org_nm      CAHPS_GRP_1 CAHPS_GRP_2 CAHPS_GRP_3 CAHPS_GRP_5 CAHPS_GRP_8
##    <chr>      <chr>             <dbl>       <dbl>       <dbl>       <dbl>       <dbl>
##  1 0446157747 USC CARE M…          63          87          86          57          85
##  2 0446162697 ASSOCIATIO…          59          85          83          63          88
##  3 0547164295 BEAVER MED…          49          NA          75          44          73
##  4 0749333730 CAPE PHYSI…          67          84          85          65          82
##  5 0840104360 ALLIANCE P…          66          87          87          64          87
##  6 0840109864 REX HOSPIT…          73          87          84          67          91
##  7 0840513552 SCL HEALTH…          58          83          76          58          78
##  8 0941545784 GRITMAN ME…          46          86          81          54          NA
##  9 1052612785 COMMUNITY …          65          84          80          58          87
## 10 1254237779 OUR LADY O…          61          NA          NA          65          NA
## # ℹ 85 more rows
## # ℹ 1 more variable: CAHPS_GRP_12 <dbl>
```
…
